Ling 343: HP 2 Desktop Edited Version
…
#Created "mit data desktop.csv"
read_csv("mit data desktop.csv")

Rows: 504 Columns: 11
── Column specification ────────────────────────────────────────────────────────
Delimiter: ","
chr (7): subject, word, affricate, rhyme, context, clo_voi, aff_voi
dbl (4): repetition, VOT, intensity, F1

ℹ Use `spec()` to retrieve the full column specification for this data.
ℹ Specify the column types or set `show_col_types = FALSE` to quiet this message.

# A tibble: 504 × 11
   subject word  affricate rhyme context repetition    VOT inten…¹    F1 clo_voi
   <chr>   <chr> <chr>     <chr> <chr>        <dbl>  <dbl>   <dbl> <dbl> <chr>  
 1 cs      chain tS        ain   stop             2 0.084     78.8  410. none   
 2 cs      chain tS        ain   vowel            2 0.095     74.7  430. none   
 3 cs      chain tS        ain   stop             1 0.105     78.2  419  none   
 4 cs      chain tS        ain   vowel            1 0.112     77.2  402  none   
 5 cs      char  tS        ar    stop             1 0.0778    77.3  493  none   
 6 cs      char  tS        ar    vowel            2 0.096     76.2  520. none   
 7 cs      char  tS        ar    vowel            1 0.105     78.8  631  none   
 8 cs      char  tS        ar    stop             2 0.149     75.9  516. none   
 9 cs      cheer tS        eer   stop             1 0.0871    81.8  352  none   
10 cs      cheer tS        eer   stop             2 0.107     76.1  329. none   
# … with 494 more rows, 1 more variable: aff_voi <chr>, and abbreviated
#   variable name ¹​intensity
…
Rows: 504 Columns: 11
── Column specification ────────────────────────────────────────────────────────
Delimiter: ","
chr (7): subject, word, affricate, rhyme, context, clo_voi, aff_voi
dbl (4): repetition, VOT, intensity, F1

ℹ Use `spec()` to retrieve the full column specification for this data.
ℹ Specify the column types or set `show_col_types = FALSE` to quiet this message.

#Column Specification Error 
# affricates <- read_sheets(affricates) #Error 
#Perhaps not "read sheets" but rather "read excel?" or read csv
affricates #This Worked

# A tibble: 504 × 11
   subject word  affricate rhyme context repetition    VOT inten…¹    F1 clo_voi
   <chr>   <chr> <chr>     <chr> <chr>        <dbl>  <dbl>   <dbl> <dbl> <chr>  
 1 cs      chain tS        ain   stop             2 0.084     78.8  410. none   
 2 cs      chain tS        ain   vowel            2 0.095     74.7  430. none   
 3 cs      chain tS        ain   stop             1 0.105     78.2  419  none   
 4 cs      chain tS        ain   vowel            1 0.112     77.2  402  none   
 5 cs      char  tS        ar    stop             1 0.0778    77.3  493  none   
 6 cs      char  tS        ar    vowel            2 0.096     76.2  520. none   
 7 cs      char  tS        ar    vowel            1 0.105     78.8  631  none   
 8 cs      char  tS        ar    stop             2 0.149     75.9  516. none   
 9 cs      cheer tS        eer   stop             1 0.0871    81.8  352  none   
10 cs      cheer tS        eer   stop             2 0.107     76.1  329. none   
# … with 494 more rows, 1 more variable: aff_voi <chr>, and abbreviated
#   variable name ¹​intensity
…
# Warning: One or more parsing issues, call `problems()` on your data frame for details, e.g.:
#   dat <- vroom(...)
#   problems(dat)

#Finished with the read/write CSV phase, at least 

# affricates

#Error: unexpected symbol in "mit data"

Trying to “render” at this stage.

affricates

# A tibble: 504 × 11
   subject word  affricate rhyme context repetition    VOT inten…¹    F1 clo_voi
   <chr>   <chr> <chr>     <chr> <chr>        <dbl>  <dbl>   <dbl> <dbl> <chr>  
 1 cs      chain tS        ain   stop             2 0.084     78.8  410. none   
 2 cs      chain tS        ain   vowel            2 0.095     74.7  430. none   
 3 cs      chain tS        ain   stop             1 0.105     78.2  419  none   
 4 cs      chain tS        ain   vowel            1 0.112     77.2  402  none   
 5 cs      char  tS        ar    stop             1 0.0778    77.3  493  none   
 6 cs      char  tS        ar    vowel            2 0.096     76.2  520. none   
 7 cs      char  tS        ar    vowel            1 0.105     78.8  631  none   
 8 cs      char  tS        ar    stop             2 0.149     75.9  516. none   
 9 cs      cheer tS        eer   stop             1 0.0871    81.8  352  none   
10 cs      cheer tS        eer   stop             2 0.107     76.1  329. none   
# … with 494 more rows, 1 more variable: aff_voi <chr>, and abbreviated
#   variable name ¹​intensity
…
affricates |> 
  count(repetition) |> 
  filter(n > 1)

# A tibble: 2 × 2
  repetition     n
       <dbl> <int>
1          1   252
2          2   252

affricates |> 
  count(intensity, subject) |> 
  filter(intensity > 70)

# A tibble: 102 × 3
   intensity subject     n
       <dbl> <chr>   <int>
 1      70.0 gh          1
 2      70.1 vp          1
 3      70.1 er          1
 4      70.1 gh          1
 5      70.2 vp          1
 6      70.2 vp          1
 7      70.2 es          1
 8      70.2 vp          1
 9      70.3 vp          1
10      70.3 gh          1
# … with 92 more rows
…
# A tibble: 3 × 3
  intensity    F1     n
      <dbl> <dbl> <int>
1      64.7   331     2
2      66.3   357     2
3      67.3   434     2

affricates2 <- affricates |> 
  mutate(id = row_number(), .before = 1)

#display output of affricates2 (surrogate key attempt)

affricates2

# A tibble: 504 × 12
      id subject word  affricate rhyme context repetition    VOT intensity    F1
   <int> <chr>   <chr> <chr>     <chr> <chr>        <dbl>  <dbl>     <dbl> <dbl>
 1     1 cs      chain tS        ain   stop             2 0.084       78.8  410.
 2     2 cs      chain tS        ain   vowel            2 0.095       74.7  430.
 3     3 cs      chain tS        ain   stop             1 0.105       78.2  419 
 4     4 cs      chain tS        ain   vowel            1 0.112       77.2  402 
 5     5 cs      char  tS        ar    stop             1 0.0778      77.3  493 
 6     6 cs      char  tS        ar    vowel            2 0.096       76.2  520.
 7     7 cs      char  tS        ar    vowel            1 0.105       78.8  631 
 8     8 cs      char  tS        ar    stop             2 0.149       75.9  516.
 9     9 cs      cheer tS        eer   stop             1 0.0871      81.8  352 
10    10 cs      cheer tS        eer   stop             2 0.107       76.1  329.
# … with 494 more rows, and 2 more variables: clo_voi <chr>, aff_voi <chr>

#Not sure if that did anything, though 

#Mutating Join Attempt
#They mix characters and digits, attempt the same here 
affricates2 <- affricates |> 
  select(subject, word, affricate, repetition, VOT, intensity, F1)

affricates2

# A tibble: 504 × 7
   subject word  affricate repetition    VOT intensity    F1
   <chr>   <chr> <chr>          <dbl>  <dbl>     <dbl> <dbl>
 1 cs      chain tS                 2 0.084       78.8  410.
 2 cs      chain tS                 2 0.095       74.7  430.
 3 cs      chain tS                 1 0.105       78.2  419 
 4 cs      chain tS                 1 0.112       77.2  402 
 5 cs      char  tS                 1 0.0778      77.3  493 
 6 cs      char  tS                 2 0.096       76.2  520.
 7 cs      char  tS                 1 0.105       78.8  631 
 8 cs      char  tS                 2 0.149       75.9  516.
 9 cs      cheer tS                 1 0.0871      81.8  352 
10 cs      cheer tS                 2 0.107       76.1  329.
# … with 494 more rows
…
#Left Join Attempt

affricates3 <- affricates2

#Creating and renaming a new Tibble 

affricates3 |>
  left_join(affricates2)

Joining, by = c("subject", "word", "affricate", "repetition", "VOT",
"intensity", "F1")

# A tibble: 504 × 7
   subject word  affricate repetition    VOT intensity    F1
   <chr>   <chr> <chr>          <dbl>  <dbl>     <dbl> <dbl>
 1 cs      chain tS                 2 0.084       78.8  410.
 2 cs      chain tS                 2 0.095       74.7  430.
 3 cs      chain tS                 1 0.105       78.2  419 
 4 cs      chain tS                 1 0.112       77.2  402 
 5 cs      char  tS                 1 0.0778      77.3  493 
 6 cs      char  tS                 2 0.096       76.2  520.
 7 cs      char  tS                 1 0.105       78.8  631 
 8 cs      char  tS                 2 0.149       75.9  516.
 9 cs      cheer tS                 1 0.0871      81.8  352 
10 cs      cheer tS                 2 0.107       76.1  329.
# … with 494 more rows

#Trial
affricates3 |> 
  left_join(affricates2 |> select(repetition, VOT))

Joining, by = c("repetition", "VOT")

# A tibble: 1,220 × 7
   subject word  affricate repetition    VOT intensity    F1
   <chr>   <chr> <chr>          <dbl>  <dbl>     <dbl> <dbl>
 1 cs      chain tS                 2 0.084       78.8  410.
 2 cs      chain tS                 2 0.084       78.8  410.
 3 cs      chain tS                 2 0.084       78.8  410.
 4 cs      chain tS                 2 0.095       74.7  430.
 5 cs      chain tS                 2 0.095       74.7  430.
 6 cs      chain tS                 2 0.095       74.7  430.
 7 cs      chain tS                 1 0.105       78.2  419 
 8 cs      chain tS                 1 0.112       77.2  402 
 9 cs      char  tS                 1 0.0778      77.3  493 
10 cs      char  tS                 2 0.096       76.2  520.
# … with 1,210 more rows

affricates3 |> 
  left_join(affricates2 |> select(VOT))

Joining, by = "VOT"

# A tibble: 2,018 × 7
   subject word  affricate repetition   VOT intensity    F1
   <chr>   <chr> <chr>          <dbl> <dbl>     <dbl> <dbl>
 1 cs      chain tS                 2 0.084      78.8  410.
 2 cs      chain tS                 2 0.084      78.8  410.
 3 cs      chain tS                 2 0.084      78.8  410.
 4 cs      chain tS                 2 0.095      74.7  430.
 5 cs      chain tS                 2 0.095      74.7  430.
 6 cs      chain tS                 2 0.095      74.7  430.
 7 cs      chain tS                 2 0.095      74.7  430.
 8 cs      chain tS                 2 0.095      74.7  430.
 9 cs      chain tS                 1 0.105      78.2  419 
10 cs      chain tS                 1 0.112      77.2  402 
# … with 2,008 more rows

affricates3 |> 
  left_join(affricates2 |> select(word, affricate, repetition, VOT))

Joining, by = c("word", "affricate", "repetition", "VOT")

# A tibble: 588 × 7
   subject word  affricate repetition    VOT intensity    F1
   <chr>   <chr> <chr>          <dbl>  <dbl>     <dbl> <dbl>
 1 cs      chain tS                 2 0.084       78.8  410.
 2 cs      chain tS                 2 0.095       74.7  430.
 3 cs      chain tS                 2 0.095       74.7  430.
 4 cs      chain tS                 1 0.105       78.2  419 
 5 cs      chain tS                 1 0.112       77.2  402 
 6 cs      char  tS                 1 0.0778      77.3  493 
 7 cs      char  tS                 2 0.096       76.2  520.
 8 cs      char  tS                 1 0.105       78.8  631 
 9 cs      char  tS                 2 0.149       75.9  516.
10 cs      cheer tS                 1 0.0871      81.8  352 
# … with 578 more rows

affricates3 |> 
  left_join(affricates2 |> select(affricate, repetition, VOT, intensity, F1))

Joining, by = c("affricate", "repetition", "VOT", "intensity", "F1")

# A tibble: 504 × 7
   subject word  affricate repetition    VOT intensity    F1
   <chr>   <chr> <chr>          <dbl>  <dbl>     <dbl> <dbl>
 1 cs      chain tS                 2 0.084       78.8  410.
 2 cs      chain tS                 2 0.095       74.7  430.
 3 cs      chain tS                 1 0.105       78.2  419 
 4 cs      chain tS                 1 0.112       77.2  402 
 5 cs      char  tS                 1 0.0778      77.3  493 
 6 cs      char  tS                 2 0.096       76.2  520.
 7 cs      char  tS                 1 0.105       78.8  631 
 8 cs      char  tS                 2 0.149       75.9  516.
 9 cs      cheer tS                 1 0.0871      81.8  352 
10 cs      cheer tS                 2 0.107       76.1  329.
# … with 494 more rows
…
# left_join(word, rhyme, join_by(repetition))
# 
# #Not working
# Error in UseMethod("left_join") : 
#   no applicable method for 'left_join' applied to an object of class "function"

affricates |> 
  summarize(
    mean_intensity = mean(intensity, na.rm = TRUE),
    .by = VOT
  )

# A tibble: 504 × 2
   mean_intensity    .by
            <dbl>  <dbl>
 1           65.5 0.084 
 2           65.5 0.095 
 3           65.5 0.105 
 4           65.5 0.112 
 5           65.5 0.0778
 6           65.5 0.096 
 7           65.5 0.105 
 8           65.5 0.149 
 9           65.5 0.0871
10           65.5 0.107 
# … with 494 more rows

affricates |> 
  group_by(VOT) |> 
  summarize(
    mean_intensity = mean(intensity, na.rm = TRUE)
  )

# A tibble: 251 × 2
      VOT mean_intensity
    <dbl>          <dbl>
 1 0                57.6
 2 0.0279           60.8
 3 0.0292           59.1
 4 0.0317           72.3
 5 0.0332           54.8
 6 0.0348           57.4
 7 0.035            70.3
 8 0.0351           59.7
 9 0.0364           52.9
10 0.037            72.8
# … with 241 more rows
…
Finished with the “joins” section.

Ideally, there would be different pages, one “index” page, one page for “joins” and one page for “plots.” However, keeping them all as one single “page” for simplicity now.

Next Section: Attempt at Plotting the Data

Inspired by code from both the textbook and the course github site: https://lisalevinson.github.io/2023-winter_ling343/classes/2023-02-09.html etc.

#removing this to see if it helps with preventing the rendering error
#removing "#| warning: true"
affricates

# A tibble: 504 × 11
   subject word  affricate rhyme context repetition    VOT inten…¹    F1 clo_voi
   <chr>   <chr> <chr>     <chr> <chr>        <dbl>  <dbl>   <dbl> <dbl> <chr>  
 1 cs      chain tS        ain   stop             2 0.084     78.8  410. none   
 2 cs      chain tS        ain   vowel            2 0.095     74.7  430. none   
 3 cs      chain tS        ain   stop             1 0.105     78.2  419  none   
 4 cs      chain tS        ain   vowel            1 0.112     77.2  402  none   
 5 cs      char  tS        ar    stop             1 0.0778    77.3  493  none   
 6 cs      char  tS        ar    vowel            2 0.096     76.2  520. none   
 7 cs      char  tS        ar    vowel            1 0.105     78.8  631  none   
 8 cs      char  tS        ar    stop             2 0.149     75.9  516. none   
 9 cs      cheer tS        eer   stop             1 0.0871    81.8  352  none   
10 cs      cheer tS        eer   stop             2 0.107     76.1  329. none   
# … with 494 more rows, 1 more variable: aff_voi <chr>, and abbreviated
#   variable name ¹​intensity
…
 # geom_smooth(method = "loess", se = FALSE)
#The last line did not seem to help.

#Not a particularly good plott, but at the very least, a plot was produced
# Continue to improve from here and interatively come up with better plots 

#removed the original backticks in R to see if that would fix the rendering issue
#removing "#| warning: false"
affricates

# A tibble: 504 × 11
   subject word  affricate rhyme context repetition    VOT inten…¹    F1 clo_voi
   <chr>   <chr> <chr>     <chr> <chr>        <dbl>  <dbl>   <dbl> <dbl> <chr>  
 1 cs      chain tS        ain   stop             2 0.084     78.8  410. none   
 2 cs      chain tS        ain   vowel            2 0.095     74.7  430. none   
 3 cs      chain tS        ain   stop             1 0.105     78.2  419  none   
 4 cs      chain tS        ain   vowel            1 0.112     77.2  402  none   
 5 cs      char  tS        ar    stop             1 0.0778    77.3  493  none   
 6 cs      char  tS        ar    vowel            2 0.096     76.2  520. none   
 7 cs      char  tS        ar    vowel            1 0.105     78.8  631  none   
 8 cs      char  tS        ar    stop             2 0.149     75.9  516. none   
 9 cs      cheer tS        eer   stop             1 0.0871    81.8  352  none   
10 cs      cheer tS        eer   stop             2 0.107     76.1  329. none   
# … with 494 more rows, 1 more variable: aff_voi <chr>, and abbreviated
#   variable name ¹​intensity
…
